V3 3
FL C:/Users/Sina/Desktop/exercise/TriStateBuffer/Bus.vhd 2019/08/15.07:40:10 P.20131013
EN work/MyBus 1565880028 FL C:/Users/Sina/Desktop/exercise/TriStateBuffer/Bus.vhd \
      PB ieee/std_logic_1164 1381692176 PB ieee/NUMERIC_STD 1381692181
AR work/MyBus/Behavioral 1565880029 \
      FL C:/Users/Sina/Desktop/exercise/TriStateBuffer/Bus.vhd EN work/MyBus 1565880028
